Tabular_Data
…
BData <- BData %>%
  mutate(date = as.Date(BData$date, format = '%m/%d/%y')) %>%
  mutate(year = year(date)) %>%
  mutate(month = month(date)) %>%
  mutate(year_month = format(BData$date, format = '%Y-%m'))

Trend of popular genre by year

genre_by_year <- BData %>%
  group_by(broad_genre, year) %>%
  summarise(year_count = n())

genre_by_year

## # A tibble: 127 x 3
## # Groups:   broad_genre [?]
##    broad_genre  year year_count
##         <fctr> <dbl>      <int>
##  1              2018        367
##  2     country  2000         62
##  3     country  2001         61
##  4     country  2002         57
##  5     country  2003         59
##  6     country  2004         62
##  7     country  2005         69
##  8     country  2006         63
##  9     country  2007         65
## 10     country  2008         64
## # ... with 117 more rows
…
